r_49: Facebook Relationship Prediction
…
isomorphic(g1, g2)

# [1] TRUE

# id == nodeID
# revise node ids
V(g1)$id <- 1:vcount(g1)
V(g2)$id <- 1:vcount(g2)

train1 <- read_csv("http://www.cis.jhu.edu/~parky/D3M/r49/data/trainData.csv")
train2 <- read_csv("http://www.cis.jhu.edu/~parky/D3M/r49/data/trainTargets.csv")
#test <- read_csv("~/Dropbox/D3M/D3M/r49/solution/baseline/testTargets.csv")
train <- left_join(train1,train2, by="d3mIndex"); train

# # A tibble: 151 x 5
#    d3mIndex graph.x G1.nodeID graph.y G2.nodeID
#       <int>   <chr>     <int>   <chr>     <int>
#  1        0  G1.gml         7  G2.gml        32
#  2        1  G1.gml       152  G2.gml       433
#  3        2  G1.gml       742  G2.gml       831
#  4        3  G1.gml        12  G2.gml       616
#  5        4  G1.gml       277  G2.gml       515
#  6        5  G1.gml       279  G2.gml       796
#  7        6  G1.gml       430  G2.gml       457
#  8        7  G1.gml        15  G2.gml       680
#  9        8  G1.gml       117  G2.gml       401
# 10        9  G1.gml       389  G2.gml       737
# # ... with 141 more rows
…
